pmu/SystemC design/power_monitor.vcd
$date
     Dec 01, 2025       22:48:01
$end

$version
 SystemC 2.3.3-Accellera --- Nov 28 2025 19:05:06
$end

$timescale
     1 ns
$end

$scope module SystemC $end
$var wire    1  aaaaa  clk       $end
$var wire    1  aaaab  rst_n       $end
$var wire   12  aaaac  mem_voltage [11:0]  $end
$var wire   12  aaaad  mem_current [11:0]  $end
$var wire   12  aaaae  io_voltage [11:0]  $end
$var wire   12  aaaaf  io_current [11:0]  $end
$var wire    8  aaaag  temp_memory [7:0]  $end
$var wire    8  aaaah  temp_ambient [7:0]  $end
$var wire    1  aaaai  voltage_alert       $end
$var wire    1  aaaaj  power_alert       $end
$var wire    1  aaaak  temp_alert       $end
$var wire    1  aaaal  mem_clk_out       $end
$var wire    1  aaaam  io_clk_out       $end
$var wire    8  aaaan  paddr [7:0]  $end
$var wire    1  aaaao  pwrite       $end
$var wire   32  aaaap  pwdata [31:0]  $end
$var wire   32  aaaaq  prdata [31:0]  $end
$upscope $end
$enddefinitions  $end

$comment
All initial values are dumped below at time 0 sec = 0 timescale units.
$end

$dumpvars
1aaaaa
0aaaab
b0 aaaac
b0 aaaad
b0 aaaae
b0 aaaaf
b0 aaaag
b0 aaaah
0aaaai
0aaaaj
0aaaak
0aaaal
0aaaam
b0 aaaan
0aaaao
b0 aaaap
b0 aaaaq
$end

#5
0aaaaa

#10
1aaaaa

#15
0aaaaa

#20
1aaaaa

#25
0aaaaa

#30
1aaaaa

#35
0aaaaa

#40
1aaaaa
1aaaab

#45
0aaaaa

#50
1aaaaa
1aaaal
1aaaam

#55
0aaaaa

#60
1aaaaa
b1000 aaaan
1aaaao
b1010101011111010000010010110000 aaaap

#65
0aaaaa

#70
1aaaaa

#75
0aaaaa

#80
1aaaaa
0aaaao

#85
0aaaaa

#90
1aaaaa
b0 aaaan
1aaaao
b111 aaaap

#95
0aaaaa

#100
1aaaaa

#105
0aaaaa

#110
1aaaaa
0aaaao

#115
0aaaaa

#120
1aaaaa

#125
0aaaaa

#130
1aaaaa

#135
0aaaaa

#140
1aaaaa
b1111101000 aaaac
b111110100 aaaad
b10001001100 aaaae
b100101100 aaaaf
b1000110 aaaag
b1000001 aaaah
b111 aaaaq

#145
0aaaaa

#150
1aaaaa

#155
0aaaaa

#160
1aaaaa

#165
0aaaaa

#170
1aaaaa

#175
0aaaaa

#180
1aaaaa

#185
0aaaaa

#190
1aaaaa

#195
0aaaaa

#200
1aaaaa

#205
0aaaaa

#210
1aaaaa

#215
0aaaaa

#220
1aaaaa

#225
0aaaaa

#230
1aaaaa

#235
0aaaaa

#240
1aaaaa
b10100010100 aaaac

#245
0aaaaa

#250
1aaaaa

#255
0aaaaa

#260
1aaaaa
1aaaai

#265
0aaaaa

#270
1aaaaa

#275
0aaaaa

#280
1aaaaa

#285
0aaaaa

#290
1aaaaa

#295
0aaaaa

#300
1aaaaa
b10000 aaaan

#305
0aaaaa

#310
1aaaaa

#315
0aaaaa

#320
1aaaaa
b1111101000 aaaac
b10100010100 aaaaq

#325
0aaaaa

#330
1aaaaa

#335
0aaaaa

#340
1aaaaa
0aaaai

#345
0aaaaa

#350
1aaaaa

#355
0aaaaa

#360
1aaaaa

#365
0aaaaa

#370
1aaaaa
b10111011100 aaaac
b10111011100 aaaad

#375
0aaaaa

#380
1aaaaa

#385
0aaaaa

#390
1aaaaa
1aaaai
1aaaaj

#395
0aaaaa

#400
1aaaaa

#405
0aaaaa

#410
1aaaaa

#415
0aaaaa

#420
1aaaaa

#425
0aaaaa

#430
1aaaaa
b11000 aaaan

#435
0aaaaa

#440
1aaaaa

#445
0aaaaa

#450
1aaaaa
b1111101000 aaaac
b111110100 aaaad
b100010010101 aaaaq

#455
0aaaaa

#460
1aaaaa

#465
0aaaaa

#470
1aaaaa
0aaaai
0aaaaj

#475
0aaaaa

#480
1aaaaa

#485
0aaaaa

#490
1aaaaa

#495
0aaaaa

#500
1aaaaa
b1011010 aaaag
b1011000 aaaah

#505
0aaaaa

#510
1aaaaa

#515
0aaaaa

#520
1aaaaa
1aaaak

#525
0aaaaa

#530
1aaaaa

#535
0aaaaa

#540
1aaaaa

#545
0aaaaa

#550
1aaaaa

#555
0aaaaa

#560
1aaaaa
b110000 aaaan

#565
0aaaaa

#570
1aaaaa

#575
0aaaaa

#580
1aaaaa
b1011010 aaaaq

#585
0aaaaa

#590
1aaaaa
b110100 aaaan

#595
0aaaaa

#600
1aaaaa

#605
0aaaaa

#610
1aaaaa
b1000110 aaaag
b1000001 aaaah
b1011000 aaaaq

#615
0aaaaa

#620
1aaaaa

#625
0aaaaa

#630
1aaaaa
0aaaak

#635
0aaaaa

#640
1aaaaa

#645
0aaaaa

#650
1aaaaa

#655
0aaaaa

#660
1aaaaa
b10101111000 aaaac
b100111000100 aaaaf
b1011111 aaaag

#665
0aaaaa

#670
1aaaaa

#675
0aaaaa

#680
1aaaaa
1aaaai
1aaaaj
1aaaak

#685
0aaaaa

#690
1aaaaa

#695
0aaaaa

#700
1aaaaa

#705
0aaaaa

#710
1aaaaa
b1111101000 aaaac
b100101100 aaaaf
b1000110 aaaag

#715
0aaaaa

#720
1aaaaa

#725
0aaaaa

#730
1aaaaa
0aaaai
0aaaaj
0aaaak

#735
0aaaaa

#740
1aaaaa

#745
0aaaaa

#750
1aaaaa

#755
0aaaaa

#760
1aaaaa

#765
0aaaaa

#770
1aaaaa
b1000100 aaaan
1aaaao

#775
0aaaaa

#780
1aaaaa

#785
0aaaaa

#790
1aaaaa
0aaaao

#795
0aaaaa

#800
1aaaaa

#805
0aaaaa

#810
1aaaaa

#815
0aaaaa

#820
1aaaaa

#825
0aaaaa

#830
1aaaaa

#835
0aaaaa

#840
1aaaaa
b10111011100 aaaac

#845
0aaaaa

#850
1aaaaa

#855
0aaaaa

#860
1aaaaa
1aaaai

#865
0aaaaa

#870
1aaaaa
0aaaal
0aaaam

#875
0aaaaa

#880
1aaaaa

#885
0aaaaa

#890
1aaaaa
b1111101000 aaaac

#895
0aaaaa

#900
1aaaaa

#905
0aaaaa

#910
1aaaaa
0aaaai

#915
0aaaaa

#920
1aaaaa
1aaaal
1aaaam

#925
0aaaaa

#930
1aaaaa

#935
0aaaaa

#940
1aaaaa

#945
0aaaaa

#950
1aaaaa
b0 aaaan
1aaaao
b101 aaaap

#955
0aaaaa

#960
1aaaaa

#965
0aaaaa

#970
1aaaaa
b10111011100 aaaac
0aaaao

#975
0aaaaa

#980
1aaaaa

#985
0aaaaa

#990
1aaaaa

#995
0aaaaa

#1000
1aaaaa

#1005
0aaaaa

#1010
1aaaaa

#1015
0aaaaa

#1020
1aaaaa

#1025
0aaaaa

#1030
1aaaaa
1aaaao
b111 aaaap

#1035
0aaaaa

#1040
1aaaaa

#1045
0aaaaa

#1050
1aaaaa
0aaaao

#1055
0aaaaa

#1060
1aaaaa

#1065
0aaaaa

#1070
1aaaaa
1aaaai

#1075
0aaaaa

#1080
1aaaaa
0aaaal
0aaaam

#1085
0aaaaa

#1090
1aaaaa

#1095
0aaaaa

#1100
1aaaaa
b1111101000 aaaac
b10100010100 aaaae
b1100100000 aaaaf

#1105
0aaaaa

#1110
1aaaaa

#1115
0aaaaa

#1120
1aaaaa

#1125
0aaaaa

#1130
1aaaaa

#1135
0aaaaa

#1140
1aaaaa

#1145
0aaaaa

#1150
1aaaaa

#1155
0aaaaa

#1160
1aaaaa
b100000 aaaan

#1165
0aaaaa

#1170
1aaaaa

#1175
0aaaaa

#1180
1aaaaa
b10100010100 aaaaq

#1185
0aaaaa

#1190
1aaaaa
b100100 aaaan

#1195
0aaaaa

#1200
1aaaaa

#1205
0aaaaa

#1210
1aaaaa
b1100100000 aaaaq

#1215
0aaaaa

#1220
1aaaaa
b101000 aaaan

#1225
0aaaaa

#1230
1aaaaa

#1235
0aaaaa

#1240
1aaaaa
b1111110111 aaaaq

#1245
0aaaaa

#1250
1aaaaa
b100 aaaan

#1255
0aaaaa

#1260
1aaaaa

#1265
0aaaaa

#1270
1aaaaa
b1 aaaaq

#1275
0aaaaa

#1280
1aaaaa
b111000 aaaan

#1285
0aaaaa

#1290
1aaaaa

#1295
0aaaaa

#1300
1aaaaa
b111 aaaaq

#1305
0aaaaa

#1310
1aaaaa
b111100 aaaan

#1315
0aaaaa

#1320
1aaaaa

#1325
0aaaaa

#1330
1aaaaa
b10001001100 aaaac
b1111101000 aaaae
b10 aaaaq

#1335
0aaaaa

#1340
1aaaaa
b1000 aaaan
1aaaao
b1010101011111010000001111101000 aaaap

#1345
0aaaaa

#1350
1aaaaa
0aaaai

#1355
0aaaaa

#1360
1aaaaa
1aaaal
1aaaam
0aaaao

#1365
0aaaaa

#1370
1aaaaa
1aaaai

#1375
0aaaaa

#1380
1aaaaa
0aaaal
0aaaam

#1385
0aaaaa

#1390
1aaaaa

#1395
0aaaaa

#1400
1aaaaa

#1405
0aaaaa

#1410
1aaaaa

#1415
0aaaaa

#1420
1aaaaa
1aaaao
b1010101011111010000010010110000 aaaap

#1425
0aaaaa

#1430
1aaaaa

#1435
0aaaaa

#1440
1aaaaa
0aaaao

#1445
0aaaaa

#1450
1aaaaa
0aaaai

